\relax 
\@writefile{lof}{\addvspace {0\p@ }}
\@writefile{lot}{\addvspace {0\p@ }}
\@writefile{loan}{\contentsline {section}{\MakeUppercase  {Anexo }A\hspace  {0.5em}-- T\IeC {\'\i }tulo do Anexo}{34}{appendix.A}}
\@setckpt{capitulos/anexoa}{
\setcounter{page}{35}
\setcounter{equation}{0}
\setcounter{enumi}{0}
\setcounter{enumii}{0}
\setcounter{enumiii}{0}
\setcounter{enumiv}{0}
\setcounter{footnote}{0}
\setcounter{mpfootnote}{0}
\setcounter{part}{0}
\setcounter{chapter}{1}
\setcounter{section}{0}
\setcounter{subsection}{0}
\setcounter{subsubsection}{1}
\setcounter{paragraph}{0}
\setcounter{subparagraph}{0}
\setcounter{figure}{0}
\setcounter{table}{0}
\setcounter{NAT@ctr}{0}
\setcounter{ii@authorcount}{1}
\setcounter{ii@committeecount}{2}
\setcounter{kwcounter}{5}
\setcounter{parentequation}{0}
\setcounter{Item}{0}
\setcounter{Hfootnote}{0}
\setcounter{bookmark@seq@number}{33}
\setcounter{section@level}{1}
}
