\relax 
\providecommand\hyper@newdestlabel[2]{}
\citation{Reaes2006}
\citation{Handbook2011}
\@writefile{toc}{\contentsline {chapter}{\numberline {2}Projeto}{12}{chapter.2}}
\@writefile{lof}{\addvspace {0\p@ }}
\@writefile{lot}{\addvspace {0\p@ }}
\@writefile{toc}{\contentsline {section}{\numberline {2.1}Objetivo}{12}{section.2.1}}
\@writefile{toc}{\contentsline {subsection}{\numberline {2.1.1}Objetivo geral}{12}{subsection.2.1.1}}
\@writefile{toc}{\contentsline {subsection}{\numberline {2.1.2}Objetivos espec\IeC {\'\i }ficos}{12}{subsection.2.1.2}}
\@writefile{toc}{\contentsline {section}{\numberline {2.2}Justificativa}{12}{section.2.2}}
\citation{Reaes2006}
\citation{Handbook2011}
\citation{Ngo2006}
\citation{Li2010,Xu2008,Torralba2001}
\@writefile{toc}{\contentsline {section}{\numberline {2.3}M\IeC {\'e}todologia}{14}{section.2.3}}
\@writefile{toc}{\contentsline {subsection}{\numberline {2.3.1}Estudo de t\IeC {\'e}cnicas e bibliotecas de vis\IeC {\~a}o computacional}{14}{subsection.2.3.1}}
\@writefile{toc}{\contentsline {subsection}{\numberline {2.3.2}Desenvolvimento da aplica\IeC {\c c}\IeC {\~a}o}{14}{subsection.2.3.2}}
\@writefile{toc}{\contentsline {subsection}{\numberline {2.3.3}Obten\IeC {\c c}\IeC {\~a}o de imagem}{15}{subsection.2.3.3}}
\@writefile{toc}{\contentsline {subsection}{\numberline {2.3.4}Detec\IeC {\c c}\IeC {\~a}o de pessoas}{15}{subsection.2.3.4}}
\@writefile{toc}{\contentsline {subsection}{\numberline {2.3.5}Segmenta\IeC {\c c}\IeC {\~a}o facial}{15}{subsection.2.3.5}}
\@writefile{toc}{\contentsline {subsection}{\numberline {2.3.6}Reconhecimento facial}{15}{subsection.2.3.6}}
\@writefile{toc}{\contentsline {subsection}{\numberline {2.3.7}Treinamento e testes do sistema}{16}{subsection.2.3.7}}
\@writefile{toc}{\contentsline {section}{\numberline {2.4}Cronograma}{16}{section.2.4}}
\@writefile{lot}{\contentsline {table}{\numberline {Tabela\nobreakspace  2.1~-- }{\ignorespaces Cronograma para o desenvolvimento da aplica\IeC {\c c}\IeC {\~a}o.}}{16}{table.2.1}}
\newlabel{tab:cron}{{2.1}{16}{Cronograma para o desenvolvimento da aplicação}{table.2.1}{}}
\@setckpt{capitulos/desenvolvimento}{
\setcounter{page}{17}
\setcounter{equation}{0}
\setcounter{enumi}{0}
\setcounter{enumii}{0}
\setcounter{enumiii}{0}
\setcounter{enumiv}{0}
\setcounter{footnote}{1}
\setcounter{mpfootnote}{0}
\setcounter{part}{0}
\setcounter{chapter}{2}
\setcounter{section}{4}
\setcounter{subsection}{0}
\setcounter{subsubsection}{0}
\setcounter{paragraph}{0}
\setcounter{subparagraph}{0}
\setcounter{figure}{0}
\setcounter{table}{1}
\setcounter{NAT@ctr}{0}
\setcounter{ii@authorcount}{1}
\setcounter{ii@committeecount}{2}
\setcounter{kwcounter}{6}
\setcounter{parentequation}{0}
\setcounter{Item}{0}
\setcounter{Hfootnote}{1}
\setcounter{bookmark@seq@number}{17}
\setcounter{section@level}{1}
}
