\relax 
\providecommand\hyper@newdestlabel[2]{}
\citation{Gunes2004}
\citation{Handbook2011}
\@writefile{toc}{\contentsline {chapter}{\numberline {1}Introdu\IeC {\c c}\IeC {\~a}o}{10}{chapter.1}}
\@writefile{lof}{\addvspace {0\p@ }}
\@writefile{lot}{\addvspace {0\p@ }}
\newlabel{chap:Introducao}{{1}{10}{Introdução}{chapter.1}{}}
\@writefile{toc}{\contentsline {section}{\numberline {1.1}Apresenta\IeC {\c c}\IeC {\~a}o}{10}{section.1.1}}
\newlabel{apres}{{1.1}{10}{Apresentação}{section.1.1}{}}
\@writefile{toc}{\contentsline {section}{\numberline {1.2}Problem\IeC {\'a}tica}{10}{section.1.2}}
\citation{Munsell2012}
\@setckpt{capitulos/introducao}{
\setcounter{page}{12}
\setcounter{equation}{0}
\setcounter{enumi}{0}
\setcounter{enumii}{0}
\setcounter{enumiii}{0}
\setcounter{enumiv}{0}
\setcounter{footnote}{0}
\setcounter{mpfootnote}{0}
\setcounter{part}{0}
\setcounter{chapter}{1}
\setcounter{section}{2}
\setcounter{subsection}{0}
\setcounter{subsubsection}{0}
\setcounter{paragraph}{0}
\setcounter{subparagraph}{0}
\setcounter{figure}{0}
\setcounter{table}{0}
\setcounter{NAT@ctr}{0}
\setcounter{ii@authorcount}{1}
\setcounter{ii@committeecount}{2}
\setcounter{kwcounter}{6}
\setcounter{parentequation}{0}
\setcounter{Item}{0}
\setcounter{Hfootnote}{0}
\setcounter{bookmark@seq@number}{3}
\setcounter{section@level}{1}
}
