\relax 
\providecommand\hyper@newdestlabel[2]{}
\citation{Albuquerque2000}
\citation{Albuquerque2000}
\citation{Sonka2007}
\citation{imgMoto}
\citation{imgMoto}
\@writefile{toc}{\contentsline {chapter}{\numberline {3}Revis\IeC {\~a}o Bibliogr\IeC {\'a}fica}{17}{chapter.3}}
\@writefile{lof}{\addvspace {0\p@ }}
\@writefile{lot}{\addvspace {0\p@ }}
\@writefile{toc}{\contentsline {section}{\numberline {3.1}Vis\IeC {\~a}o computacional}{17}{section.3.1}}
\@writefile{lof}{\contentsline {figure}{\numberline {Figura\nobreakspace  3.1~-- }{\ignorespaces Exemplo de processamento de imagem digital com Vis\IeC {\~a}o computacional para segmenta\IeC {\c c}\IeC {\~a}o da imagem \citep  {imgMoto}.}}{17}{figure.3.1}}
\newlabel{moto}{{3.1}{17}{Exemplo de processamento de imagem digital com Visão computacional para segmentação da imagem \cite {imgMoto}}{figure.3.1}{}}
\citation{imgFases}
\citation{imgFases}
\citation{Kruppa2003}
\@writefile{lof}{\contentsline {figure}{\numberline {Figura\nobreakspace  3.2~-- }{\ignorespaces Partes de um algoritmo de Vis\IeC {\~a}o Computacional, a extra\IeC {\c c}\IeC {\~a}o de caracter\IeC {\'\i }sticas est\IeC {\'a} implicita junto com o pr\IeC {\'e}-processamento \citep  {imgFases}.}}{18}{figure.3.2}}
\newlabel{fases}{{3.2}{18}{Partes de um algoritmo de Visão Computacional, a extração de características está implicita junto com o pré-processamento \cite {imgFases}}{figure.3.2}{}}
\@writefile{toc}{\contentsline {section}{\numberline {3.2}Detec\IeC {\c c}\IeC {\~a}o de pessoas}{18}{section.3.2}}
\citation{Meynet2003}
\citation{Meynet2003}
\citation{Burl1995}
\citation{Burl1995}
\citation{Meynet2003}
\citation{Viola2001}
\citation{Viola2004,Gonzalez2006,Kruppa2003}
\citation{Yang2002}
\@writefile{toc}{\contentsline {subsection}{\numberline {3.2.1}Detec\IeC {\c c}\IeC {\~a}o facial}{19}{subsection.3.2.1}}
\newlabel{decFace}{{3.2.1}{19}{Detecção facial}{subsection.3.2.1}{}}
\citation{Yang2002}
\citation{Kruppa2003}
\citation{Kruppa2003}
\citation{Papageorgiou1998}
\@writefile{lot}{\contentsline {table}{\numberline {Tabela\nobreakspace  3.1~-- }{\ignorespaces Sub Divis\IeC {\~a}o dos quatro grupos de detec\IeC {\c c}\IeC {\~a}o facial \citep  {Yang2002}.}}{20}{table.3.1}}
\newlabel{tab:tecnicas}{{3.1}{20}{Sub Divisão dos quatro grupos de detecção facial \cite {Yang2002}}{table.3.1}{}}
\@writefile{lof}{\contentsline {figure}{\numberline {Figura\nobreakspace  3.3~-- }{\ignorespaces Faces detectadas em imagens atr\IeC {\'a}ves de m\IeC {\'e}todos de vis\IeC {\~a}o computacional \citep  {Kruppa2003}.}}{20}{figure.3.3}}
\newlabel{facedetection}{{3.3}{20}{Faces detectadas em imagens atráves de métodos de visão computacional \cite {Kruppa2003}}{figure.3.3}{}}
\citation{Viola2001}
\citation{Viola2001}
\citation{Viola2001,Viola2004}
\citation{Viola2004}
\citation{Dalal2005}
\citation{Dalal2005}
\@writefile{toc}{\contentsline {subsection}{\numberline {3.2.2}Caracter\IeC {\'\i }sticas Haar-Like em cascata}{21}{subsection.3.2.2}}
\newlabel{HL}{{3.2.2}{21}{Características Haar-Like em cascata}{subsection.3.2.2}{}}
\@writefile{lof}{\contentsline {figure}{\numberline {Figura\nobreakspace  3.4~-- }{\ignorespaces Tipos poss\IeC {\'\i }veis de caracter\IeC {\'\i }sticas Haar-like e um exemplo de aplica\IeC {\c c}\IeC {\~a}o numa imagem \citep  {Viola2001}.}}{21}{figure.3.4}}
\newlabel{tiposHaar}{{3.4}{21}{Tipos possíveis de características Haar-like e um exemplo de aplicação numa imagem \cite {Viola2001}}{figure.3.4}{}}
\citation{Zhu2006}
\citation{Zhu2006}
\@writefile{toc}{\contentsline {subsection}{\numberline {3.2.3}HOG}{22}{subsection.3.2.3}}
\@writefile{lof}{\contentsline {figure}{\numberline {Figura\nobreakspace  3.5~-- }{\ignorespaces Etapas do algoritmo HOG \citep  {Dalal2005}}}{22}{figure.3.5}}
\newlabel{HOGpipeline}{{3.5}{22}{Etapas do algoritmo HOG \cite {Dalal2005}}{figure.3.5}{}}
\citation{Dougherty2003}
\citation{Reaes2006}
\citation{Reaes2006}
\citation{Vezhnevets2003}
\@writefile{toc}{\contentsline {subsection}{\numberline {3.2.4}Segmenta\IeC {\c c}\IeC {\~a}o por bordas}{23}{subsection.3.2.4}}
\@writefile{lof}{\contentsline {figure}{\numberline {Figura\nobreakspace  3.6~-- }{\ignorespaces Imagem bin\IeC {\'a}ria e as bordas da esquerda, cima e direita para gerar uma silhueta final da face \citep  {Reaes2006}.}}{23}{figure.3.6}}
\newlabel{segBordas}{{3.6}{23}{Imagem binária e as bordas da esquerda, cima e direita para gerar uma silhueta final da face \cite {Reaes2006}}{figure.3.6}{}}
\@writefile{toc}{\contentsline {subsection}{\numberline {3.2.5}Detec\IeC {\c c}\IeC {\~a}o por cor da pele}{23}{subsection.3.2.5}}
\citation{Vezhnevets2003}
\citation{Vezhnevets2003}
\citation{Vezhnevets2003}
\citation{Kovac2003}
\citation{Kovac2003}
\citation{Turk1991}
\@writefile{lof}{\contentsline {figure}{\numberline {Figura\nobreakspace  3.7~-- }{\ignorespaces Detec\IeC {\c c}\IeC {\~a}o de face feita por detec\IeC {\c c}\IeC {\~a}o de cor com filtro de falsos positivos \citep  {Kovac2003}.}}{24}{figure.3.7}}
\newlabel{skinColor}{{3.7}{24}{Detecção de face feita por detecção de cor com filtro de falsos positivos \cite {Kovac2003}}{figure.3.7}{}}
\@writefile{toc}{\contentsline {subsection}{\numberline {3.2.6}Eigenfaces}{24}{subsection.3.2.6}}
\citation{Freund1999}
\citation{Freund1995}
\citation{Freund1995}
\citation{Cortes1995}
\citation{Cortes1995}
\@writefile{toc}{\contentsline {subsection}{\numberline {3.2.7}Adaptative Booster}{25}{subsection.3.2.7}}
\newlabel{adaboost}{{3.2.7}{25}{Adaptative Booster}{subsection.3.2.7}{}}
\@writefile{toc}{\contentsline {subsection}{\numberline {3.2.8}SVM}{25}{subsection.3.2.8}}
\newlabel{SVM}{{3.2.8}{25}{SVM}{subsection.3.2.8}{}}
\citation{Marengoni2010}
\citation{Marengoni2010}
\citation{Klontz2013}
\citation{Klontz2013}
\citation{Klontz2013}
\@writefile{toc}{\contentsline {section}{\numberline {3.3}Bibliotecas de vis\IeC {\~a}o computacional}{26}{section.3.3}}
\@writefile{toc}{\contentsline {subsection}{\numberline {3.3.1}OpenCV}{26}{subsection.3.3.1}}
\newlabel{CV}{{3.3.1}{26}{OpenCV}{subsection.3.3.1}{}}
\@writefile{toc}{\contentsline {subsection}{\numberline {3.3.2}OpenBR}{26}{subsection.3.3.2}}
\newlabel{BR}{{3.3.2}{26}{OpenBR}{subsection.3.3.2}{}}
\@writefile{lof}{\contentsline {figure}{\numberline {Figura\nobreakspace  3.8~-- }{\ignorespaces Passos para o reconhecimento facial usado pela biblioteca \emph  {OpenBR} \citep  {Klontz2013}.}}{27}{figure.3.8}}
\newlabel{OpenBR}{{3.8}{27}{Passos para o reconhecimento facial usado pela biblioteca \emph {OpenBR} \cite {Klontz2013}}{figure.3.8}{}}
\@setckpt{capitulos/revisao}{
\setcounter{page}{28}
\setcounter{equation}{0}
\setcounter{enumi}{0}
\setcounter{enumii}{0}
\setcounter{enumiii}{0}
\setcounter{enumiv}{0}
\setcounter{footnote}{1}
\setcounter{mpfootnote}{0}
\setcounter{part}{0}
\setcounter{chapter}{3}
\setcounter{section}{3}
\setcounter{subsection}{2}
\setcounter{subsubsection}{0}
\setcounter{paragraph}{0}
\setcounter{subparagraph}{0}
\setcounter{figure}{8}
\setcounter{table}{1}
\setcounter{NAT@ctr}{0}
\setcounter{ii@authorcount}{1}
\setcounter{ii@committeecount}{2}
\setcounter{kwcounter}{6}
\setcounter{parentequation}{0}
\setcounter{Item}{0}
\setcounter{Hfootnote}{1}
\setcounter{bookmark@seq@number}{31}
\setcounter{section@level}{2}
}
